<svg viewBox="0 0 24 24" fill="none" xmlns="http://www.w3.org/2000/svg">
    <g id="cancel">
        <path id="Vector"
            d="M19.059 7.05898C19.6449 6.47305 19.6449 5.52148 19.059 4.93555C18.473 4.34961 17.5215 4.34961 16.9355 4.93555L11.9996 9.87617L7.05898 4.94023C6.47305 4.3543 5.52148 4.3543 4.93555 4.94023C4.34961 5.52617 4.34961 6.47773 4.93555 7.06367L9.87617 11.9996L4.94023 16.9402C4.3543 17.5262 4.3543 18.4777 4.94023 19.0637C5.52617 19.6496 6.47773 19.6496 7.06367 19.0637L11.9996 14.123L16.9402 19.059C17.5262 19.6449 18.4777 19.6449 19.0637 19.059C19.6496 18.473 19.6496 17.5215 19.0637 16.9355L14.123 11.9996L19.059 7.05898Z"
            fill="white" />
    </g>
</svg>